{"page":1,"total_results":10000,"total_pages":500,"results":[{"popularity":1194.115,"vote_count":597,"video":false,"poster_path":"\/uPGq1mkEXznUpapDmOSxbsybjfp.jpg","id":475303,"adult":false,"backdrop_path":"\/6fkqwqLEcDZOEAnBBfKAniwNxtx.jpg","original_language":"en","original_title":"A Rainy Day in New York","genre_ids":[35,10749],"title":"A Rainy Day in New York","vote_average":6.7,"overview":"Two young people arrive in New York to spend a weekend, but once they arrive they're met with bad weather and a series of adventures.","release_date":"2019-07-26"},{"popularity":267.705,"vote_count":1938,"video":false,"poster_path":"\/bB42KDdfWkOvmzmYkmK58ZlCa9P.jpg","id":512200,"adult":false,"backdrop_path":"\/hreiLoPysWG79TsyQgMzFKaOTF5.jpg","original_language":"en","original_title":"Jumanji: The Next Level","genre_ids":[28,12,35,14],"title":"Jumanji: The Next Level","vote_average":6.8,"overview":"As the gang return to Jumanji to rescue one of their own, they discover that nothing is as they expect. The players will have to brave parts unknown and unexplored in order to escape the world’s most dangerous game.","release_date":"2019-12-04"},{"popularity":261.579,"vote_count":2494,"video":false,"poster_path":"\/xBHvZcjRiWyobQ9kxBhO6B2dtRI.jpg","id":419704,"adult":false,"backdrop_path":"\/5BwqwxMEjeFtdknRV792Svo0K1v.jpg","original_language":"en","original_title":"Ad Astra","genre_ids":[12,18,9648,878,53],"title":"Ad Astra","vote_average":6,"overview":"The near future, a time when both hope and hardships drive humanity to look to the stars and beyond. While a mysterious phenomenon menaces to destroy life on planet Earth, astronaut Roy McBride undertakes a mission across the immensity of space and its many perils to uncover the truth about a lost expedition that decades before boldly faced emptiness and silence in search of the unknown.","release_date":"2019-09-17"},{"popularity":244.874,"vote_count":40,"video":false,"poster_path":"\/qZ1KAgfdeNbzrNYKW4BIRHdEBJ9.jpg","id":666750,"adult":false,"backdrop_path":"\/6mKAKhj8POVGqV1GsroS5mGIUe9.jpg","original_language":"en","original_title":"Dragonheart: Vengeance","genre_ids":[14],"title":"Dragonheart: Vengeance","vote_average":5.7,"overview":"Lukas, a young farmer whose family is killed by savage raiders in the countryside, sets out on an epic quest for revenge, forming an unlikely trio with a majestic dragon and a swashbuckling, sword-fighting mercenary, Darius.","release_date":"2020-02-04"},{"popularity":221.066,"vote_count":203,"video":false,"poster_path":"\/4U7hpTK0XTQBKT5X60bKmJd05ha.jpg","id":570670,"adult":false,"backdrop_path":"\/uZMZyvarQuXLRqf3xdpdMqzdtjb.jpg","original_language":"en","original_title":"The Invisible Man","genre_ids":[878,53],"title":"The Invisible Man","vote_average":7.3,"overview":"When Cecilia's abusive ex takes his own life and leaves her his fortune, she suspects his death was a hoax. As a series of coincidences turn lethal, Cecilia works to prove that she is being hunted by someone nobody can see.","release_date":"2020-02-26"},{"popularity":205.794,"vote_count":568,"video":false,"poster_path":"\/aQvJ5WPzZgYVDrxLX4R6cLJCEaQ.jpg","id":454626,"adult":false,"backdrop_path":"\/qonBhlm0UjuKX2sH7e73pnG0454.jpg","original_language":"en","original_title":"Sonic the Hedgehog","genre_ids":[28,35,878,10751],"title":"Sonic the Hedgehog","vote_average":7.2,"overview":"Based on the global blockbuster videogame franchise from Sega, Sonic the Hedgehog tells the story of the world’s speediest hedgehog as he embraces his new home on Earth. In this live-action adventure comedy, Sonic and his new best friend team up to defend the planet from the evil genius Dr. Robotnik and his plans for world domination.","release_date":"2020-02-12"},{"popularity":145.962,"vote_count":4789,"video":false,"poster_path":"\/7IiTTgloJzvGI1TAYymCfbfl3vT.jpg","id":496243,"adult":false,"backdrop_path":"\/TU9NIjwzjoKPwQHoHshkFcQUCG.jpg","original_language":"ko","original_title":"기생충","genre_ids":[35,18,53],"title":"Parasite","vote_average":8.6,"overview":"All unemployed, Ki-taek's family takes peculiar interest in the wealthy and glamorous Parks for their livelihood until they get entangled in an unexpected incident.","release_date":"2019-05-30"},{"popularity":145.51,"vote_count":2626,"video":false,"poster_path":"\/pjeMs3yqRmFL3giJy4PMXWZTTPa.jpg","id":330457,"adult":false,"backdrop_path":"\/xJWPZIYOEFIjZpBL7SVBGnzRYXp.jpg","original_language":"en","original_title":"Frozen II","genre_ids":[12,16,10751],"title":"Frozen II","vote_average":7.1,"overview":"Elsa, Anna, Kristoff and Olaf head far into the forest to learn the truth about an ancient mystery of their kingdom.","release_date":"2019-11-20"},{"popularity":104.718,"vote_count":234,"video":false,"poster_path":"\/30YacPAcxpNemhhwX0PVUl9pVA3.jpg","id":431693,"adult":false,"backdrop_path":"\/qlYxtqVfu2LOdvYMMDPCSGX0Oz0.jpg","original_language":"en","original_title":"Spies in Disguise","genre_ids":[28,12,16,35],"title":"Spies in Disguise","vote_average":7.3,"overview":"Super spy Lance Sterling and scientist Walter Beckett are almost exact opposites. Lance is smooth, suave and debonair. Walter is… not. But what Walter lacks in social skills he makes up for in smarts and invention, creating the awesome gadgets Lance uses on his epic missions. But when events take an unexpected turn, Walter and Lance suddenly have to rely on each other in a whole new way.","release_date":"2019-12-24"},{"popularity":99.886,"vote_count":561,"video":false,"poster_path":"\/1DPUFG6QnGqzpvEaDEv7TaepycM.jpg","id":458897,"adult":false,"backdrop_path":"\/a0xTB1vBxMGt6LGG4N7k1wO9lfL.jpg","original_language":"en","original_title":"Charlie's Angels","genre_ids":[28,12,35],"title":"Charlie's Angels","vote_average":6.4,"overview":"When a systems engineer blows the whistle on a dangerous technology, Charlie's Angels from across the globe are called into action, putting their lives on the line to protect society.","release_date":"2019-11-14"},{"popularity":82.516,"vote_count":7,"video":false,"poster_path":"\/2UPHyMm8fE22yvTFVGu1LW2nVF0.jpg","id":496891,"adult":false,"backdrop_path":"\/lvTdnD0gqnXzggB8ncxwEDaQdHV.jpg","original_language":"ja","original_title":"ガールズ＆パンツァー 最終章 第2話","genre_ids":[28,16,35],"title":"Girls und Panzer das Finale: Part II","vote_average":4.1,"overview":"Part 2 of 6 for the final chapter of Girls und Panzer series.","release_date":"2019-06-15"},{"popularity":83.715,"vote_count":2495,"video":false,"poster_path":"\/pThyQovXQrw2m0s9x82twj48Jq4.jpg","id":546554,"adult":false,"backdrop_path":"\/cjTQSwcsfVdirSFSHNBXRGkxmWa.jpg","original_language":"en","original_title":"Knives Out","genre_ids":[35,80,18,9648,53],"title":"Knives Out","vote_average":7.8,"overview":"When renowned crime novelist Harlan Thrombey is found dead at his estate just after his 85th birthday, the inquisitive and debonair Detective Benoit Blanc is mysteriously enlisted to investigate. From Harlan's dysfunctional family to his devoted staff, Blanc sifts through a web of red herrings and self-serving lies to uncover the truth behind Harlan's untimely death.","release_date":"2019-11-27"},{"popularity":79.446,"vote_count":43,"video":false,"poster_path":"\/2kNnf7BwRCEm4bcFkdiE0T4U25s.jpg","id":457335,"adult":false,"backdrop_path":"\/gL7TV2g9y9p3v7occ5bLrJ2p1qs.jpg","original_language":"en","original_title":"Guns Akimbo","genre_ids":[28,35],"title":"Guns Akimbo","vote_average":6.2,"overview":"An ordinary guy suddenly finds himself forced to fight a gladiator-like battle for a dark website that streams the violence for viewers. Miles must fight heavily armed Nix and also save his kidnapped ex-girlfriend.","release_date":"2020-02-27"},{"popularity":93.814,"vote_count":9570,"video":false,"poster_path":"\/udDclJoHjfjb8Ekgsd4FDteOkCU.jpg","id":475557,"adult":false,"backdrop_path":"\/n6bUvigpRFqSwmPp1m2YADdbRBc.jpg","original_language":"en","original_title":"Joker","genre_ids":[80,18,53],"title":"Joker","vote_average":8.2,"overview":"During the 1980s, a failed stand-up comedian is driven insane and turns to a life of crime and chaos in Gotham City while becoming an infamous psychopathic crime figure.","release_date":"2019-10-02"},{"popularity":93.026,"vote_count":936,"video":false,"poster_path":"\/h4VB6m0RwcicVEZvzftYZyKXs6K.jpg","id":495764,"adult":false,"backdrop_path":"\/uozb2VeD87YmhoUP1RrGWfzuCrr.jpg","original_language":"en","original_title":"Birds of Prey (and the Fantabulous Emancipation of One Harley Quinn)","genre_ids":[28,35,80],"title":"Birds of Prey (and the Fantabulous Emancipation of One Harley Quinn)","vote_average":6.8,"overview":"After her breakup with the Joker, Harley Quinn joins forces with singer Black Canary, assassin Huntress, and police detective Renee Montoya to help a young girl named Cassandra, who had a hit placed on her after she stole a rare diamond from crime lord Roman Sionis.","release_date":"2020-02-05"},{"popularity":71.67,"vote_count":1040,"video":false,"poster_path":"\/y95lQLnuNKdPAzw9F9Ab8kJ80c3.jpg","id":38700,"adult":false,"backdrop_path":"\/upUy2QhMZEmtypPW3PdieKLAHxh.jpg","original_language":"en","original_title":"Bad Boys for Life","genre_ids":[28,80,53],"title":"Bad Boys for Life","vote_average":6.3,"overview":"Marcus and Mike are forced to confront new threats, career changes, and midlife crises as they join the newly created elite team AMMO of the Miami police department to take down the ruthless Armando Armas, the vicious leader of a Miami drug cartel.","release_date":"2020-01-15"},{"popularity":84.39,"vote_count":16905,"video":false,"poster_path":"\/7WsyChQLEftFiDOVTGkv3hFpyyt.jpg","id":299536,"adult":false,"backdrop_path":"\/bOGkgRGdhrBYJSLpXaxhXVstddV.jpg","original_language":"en","original_title":"Avengers: Infinity War","genre_ids":[28,12,878],"title":"Avengers: Infinity War","vote_average":8.3,"overview":"As the Avengers and their allies have continued to protect the world from threats too large for any one hero to handle, a new danger has emerged from the cosmic shadows: Thanos. A despot of intergalactic infamy, his goal is to collect all six Infinity Stones, artifacts of unimaginable power, and use them to inflict his twisted will on all of reality. Everything the Avengers have fought for has led up to this moment - the fate of Earth and existence itself has never been more uncertain.","release_date":"2018-04-25"},{"popularity":78.192,"vote_count":246,"video":false,"poster_path":"\/4SafxuMKQiw4reBiWKVZJpJn80I.jpg","id":342470,"adult":false,"backdrop_path":"\/tcrNJfyNEIqaBR8Ogkgnq5xQJnf.jpg","original_language":"en","original_title":"All the Bright Places","genre_ids":[18,10749],"title":"All the Bright Places","vote_average":7.5,"overview":"Two teens facing personal struggles form a powerful bond as they embark on a cathartic journey chronicling the wonders of Indiana.","release_date":"2020-02-28"},{"popularity":76.884,"vote_count":142,"video":false,"poster_path":"\/33VdppGbeNxICrFUtW2WpGHvfYc.jpg","id":481848,"adult":false,"backdrop_path":"\/yFRpUmsreYO5Bc0HVBTsJsHIIox.jpg","original_language":"en","original_title":"The Call of the Wild","genre_ids":[28,12,16,18,878,10751],"title":"The Call of the Wild","vote_average":5.9,"overview":"Buck is a big-hearted dog whose blissful domestic life is turned upside down when he is suddenly uprooted from his California home and transplanted to the exotic wilds of the Yukon during the Gold Rush of the 1890s. As the newest rookie on a mail delivery dog sled team--and later its leader--Buck experiences the adventure of a lifetime, ultimately finding his true place in the world and becoming his own master.","release_date":"2020-02-19"},{"popularity":81.2,"vote_count":1582,"video":false,"poster_path":"\/vqzNJRH4YyquRiWxCCOH0aXggHI.jpg","id":290859,"adult":false,"backdrop_path":"\/riTANvQ8GKmQbgtC1ps3OfkU43A.jpg","original_language":"en","original_title":"Terminator: Dark Fate","genre_ids":[28,878],"title":"Terminator: Dark Fate","vote_average":6.3,"overview":"Decades after Sarah Connor prevented Judgment Day, a lethal new Terminator is sent to eliminate the future leader of the resistance. In a fight to save mankind, battle-hardened Sarah Connor teams up with an unexpected ally and an enhanced super soldier to stop the deadliest Terminator yet.","release_date":"2019-10-23"}]}
